…
<img src="images/chapter7-02/catalogue-two-1.png"/><img src="images/chapter7-02/catalogue-two-2.png"/><img src="images/chapter7-02/catalogue-two-3.png"/><img src="images/chapter7-02/catalogue-two-4.png"/><img src="images/chapter7-02/catalogue-two-5.png"/><img src="images/chapter7-02/catalogue-two-6.png"/>

---

## Illustrative data 💎 diamonds

-   Let’s have a look at the `diamonds` data which contains information
    about different attributes of diamonds

<!-- -->

    data(diamonds, package = "ggplot2")
    diamonds

    ## # A tibble: 53,940 × 10
    ##    carat cut       color clarity depth table price     x     y     z
    ##    <dbl> <ord>     <ord> <ord>   <dbl> <dbl> <int> <dbl> <dbl> <dbl>
    ##  1  0.23 Ideal     E     SI2      61.5    55   326  3.95  3.98  2.43
    ##  2  0.21 Premium   E     SI1      59.8    61   326  3.89  3.84  2.31
    ##  3  0.23 Good      E     VS1      56.9    65   327  4.05  4.07  2.31
    ##  4  0.29 Premium   I     VS2      62.4    58   334  4.2   4.23  2.63
    ##  5  0.31 Good      J     SI2      63.3    58   335  4.34  4.35  2.75
    ##  6  0.24 Very Good J     VVS2     62.8    57   336  3.94  3.96  2.48
    ##  7  0.24 Very Good I     VVS1     62.3    57   336  3.95  3.98  2.47
    ##  8  0.26 Very Good H     SI1      61.9    55   337  4.07  4.11  2.53
    ##  9  0.22 Fair      E     VS2      65.1    61   337  3.87  3.78  2.49
    ## 10  0.23 Very Good H     VS1      59.4    61   338  4     4.05  2.39
    ## # … with 53,930 more rows
…
<img src="images/chapter7-03/geom-rect-1.png" style="display: block; margin: auto;" />

-   A reparameterised version of `geom_tile()`

---

## Motivating data 📈 economics

    data(economics, package = "ggplot2")
    economics

    ## # A tibble: 574 × 6
    ##    date         pce    pop psavert uempmed unemploy
    ##    <date>     <dbl>  <dbl>   <dbl>   <dbl>    <dbl>
    ##  1 1967-07-01  507. 198712    12.6     4.5     2944
    ##  2 1967-08-01  510. 198911    12.6     4.7     2945
    ##  3 1967-09-01  516. 199113    11.9     4.6     2958
    ##  4 1967-10-01  512. 199311    12.9     4.9     3143
    ##  5 1967-11-01  517. 199498    12.8     4.7     3066
    ##  6 1967-12-01  525. 199657    11.8     4.8     3018
    ##  7 1968-01-01  531. 199808    11.7     5.1     2878
    ##  8 1968-02-01  534. 199920    12.3     4.5     3001
    ##  9 1968-03-01  544. 200056    11.7     4.1     2877
    ## 10 1968-04-01  544  200208    12.3     4.6     2709
    ## # … with 564 more rows
…
