…
There are a bunch of useful commands to transform and aggregate data in
R. We will use inbuilt data sets: `table1`, `table2`, `table5` and
`billboard` for demonstration.

---

### Selection helpers

-   `starts_with()`: select all variables that start with a prefix.

``` r
billboard %>% select(starts_with("wk"))
```

    ## # A tibble: 317 × 76
    ##      wk1   wk2   wk3   wk4   wk5   wk6   wk7   wk8   wk9  wk10  wk11  wk12  wk13
    ##    <dbl> <dbl> <dbl> <dbl> <dbl> <dbl> <dbl> <dbl> <dbl> <dbl> <dbl> <dbl> <dbl>
    ##  1    87    82    72    77    87    94    99    NA    NA    NA    NA    NA    NA
    ##  2    91    87    92    NA    NA    NA    NA    NA    NA    NA    NA    NA    NA
    ##  3    81    70    68    67    66    57    54    53    51    51    51    51    47
    ##  4    76    76    72    69    67    65    55    59    62    61    61    59    61
    ##  5    57    34    25    17    17    31    36    49    53    57    64    70    75
    ##  6    51    39    34    26    26    19     2     2     3     6     7    22    29
    ##  7    97    97    96    95   100    NA    NA    NA    NA    NA    NA    NA    NA
    ##  8    84    62    51    41    38    35    35    38    38    36    37    37    38
    ##  9    59    53    38    28    21    18    16    14    12    10     9     8     6
    ## 10    76    76    74    69    68    67    61    58    57    59    66    68    61
    ## # … with 307 more rows, and 63 more variables: wk14 <dbl>, wk15 <dbl>,
    ## #   wk16 <dbl>, wk17 <dbl>, wk18 <dbl>, wk19 <dbl>, wk20 <dbl>, wk21 <dbl>,
    ## #   wk22 <dbl>, wk23 <dbl>, wk24 <dbl>, wk25 <dbl>, wk26 <dbl>, wk27 <dbl>,
    ## #   wk28 <dbl>, wk29 <dbl>, wk30 <dbl>, wk31 <dbl>, wk32 <dbl>, wk33 <dbl>,
    ## #   wk34 <dbl>, wk35 <dbl>, wk36 <dbl>, wk37 <dbl>, wk38 <dbl>, wk39 <dbl>,
    ## #   wk40 <dbl>, wk41 <dbl>, wk42 <dbl>, wk43 <dbl>, wk44 <dbl>, wk45 <dbl>,
    ## #   wk46 <dbl>, wk47 <dbl>, wk48 <dbl>, wk49 <dbl>, wk50 <dbl>, wk51 <dbl>, …

Note:

In addition, you can use **selection helpers**. These helpers select
variables by matching patterns in their names.

---

-   `ends_with()`: select all variables that end with a suffix.

``` r
billboard %>% select(ends_with("9"))
```

    ## # A tibble: 317 × 7
    ##      wk9  wk19  wk29  wk39  wk49  wk59 wk69 
    ##    <dbl> <dbl> <dbl> <dbl> <dbl> <dbl> <lgl>
    ##  1    NA    NA    NA    NA    NA    NA NA   
    ##  2    NA    NA    NA    NA    NA    NA NA   
    ##  3    51    18     4     9    28    NA NA   
    ##  4    62    73    NA    NA    NA    NA NA   
    ##  5    53    NA    NA    NA    NA    NA NA   
    ##  6     3    93    NA    NA    NA    NA NA   
    ##  7    NA    NA    NA    NA    NA    NA NA   
    ##  8    38    83    NA    NA    NA    NA NA   
    ##  9    12     3    22    NA    NA    NA NA   
    ## 10    57    79    NA    NA    NA    NA NA   
    ## # … with 307 more rows
…
Note:

In addition, you can use **selection helpers**. These helpers select
variables by matching patterns in their names.

---

-   `num_range()`: select all variables that matches a numerical range
    like x01, x02, x03.

``` r
billboard %>% select(num_range("wk", 10:15))
```

    ## # A tibble: 317 × 6
    ##     wk10  wk11  wk12  wk13  wk14  wk15
    ##    <dbl> <dbl> <dbl> <dbl> <dbl> <dbl>
    ##  1    NA    NA    NA    NA    NA    NA
    ##  2    NA    NA    NA    NA    NA    NA
    ##  3    51    51    51    47    44    38
    ##  4    61    61    59    61    66    72
    ##  5    57    64    70    75    76    78
    ##  6     6     7    22    29    36    47
    ##  7    NA    NA    NA    NA    NA    NA
    ##  8    36    37    37    38    49    61
    ##  9    10     9     8     6     1     2
    ## 10    59    66    68    61    67    59
    ## # … with 307 more rows
…
