…
---

## Augment data with model information

-   You can also easily augment the data with model information,
    e.g. fitted values and residuals.

<!-- -->

    broom::augment(fit)

    ## # A tibble: 50 × 8
    ##     dist speed .fitted .resid   .hat .sigma  .cooksd .std.resid
    ##    <dbl> <dbl>   <dbl>  <dbl>  <dbl>  <dbl>    <dbl>      <dbl>
    ##  1     2     4   -1.85   3.85 0.115    15.5 0.00459       0.266
    ##  2    10     4   -1.85  11.8  0.115    15.4 0.0435        0.819
    ##  3     4     7    9.95  -5.95 0.0715   15.5 0.00620      -0.401
    ##  4    22     7    9.95  12.1  0.0715   15.4 0.0255        0.813
    ##  5    16     8   13.9    2.12 0.0600   15.5 0.000645      0.142
    ##  6    10     9   17.8   -7.81 0.0499   15.5 0.00713      -0.521
    ##  7    18    10   21.7   -3.74 0.0413   15.5 0.00133      -0.249
    ##  8    26    10   21.7    4.26 0.0413   15.5 0.00172       0.283
    ##  9    34    10   21.7   12.3  0.0413   15.4 0.0143        0.814
    ## 10    17    11   25.7   -8.68 0.0341   15.5 0.00582      -0.574
    ## # … with 40 more rows
